## Interface: 11304
## Title: Item Database
## Author: MrIngelborn
## Version: 0.2
## SavedVariables: Items
## SavedVariables: LastItemID
## SavedVariables: Ludwig_Items

events.lua
main.lua
slash.lua